R語言文字探勘好好玩 - Ch1_Tidy Text 格式 (1) - 噗噗。故我在
…
2
3
4
5
6
7
8
9
10
11
12
13
14

# A tibble: 32 x 2
    line word 
   <int> <chr>
 1     1 人生 
 2     1 就是 
 3     1 不斷 
 4     1 的   
 5     1 在   
 6     1 後悔 
 7     2 成功 
 8     2 的   
 9     2 道路 
10     2 是   
# … with 22 more rows
…
2
3
4
5
6
7
8
9
10
11
12
13
14

# A tibble: 73,422 x 4
   text                  book                linenumber chapter
   <chr>                 <fct>                    <int>   <int>
 1 SENSE AND SENSIBILITY Sense & Sensibility          1       0
 2 ""                    Sense & Sensibility          2       0
 3 by Jane Austen        Sense & Sensibility          3       0
 4 ""                    Sense & Sensibility          4       0
 5 (1811)                Sense & Sensibility          5       0
 6 ""                    Sense & Sensibility          6       0
 7 ""                    Sense & Sensibility          7       0
 8 ""                    Sense & Sensibility          8       0
 9 ""                    Sense & Sensibility          9       0
10 CHAPTER 1             Sense & Sensibility         10       1
# … with 73,412 more rows
…
2
3
4
5
6
7
8
9
10
11
12
13
14

# A tibble: 725,055 x 4
   book                linenumber chapter word       
   <fct>                    <int>   <int> <chr>      
 1 Sense & Sensibility          1       0 sense      
 2 Sense & Sensibility          1       0 and        
 3 Sense & Sensibility          1       0 sensibility
 4 Sense & Sensibility          3       0 by         
 5 Sense & Sensibility          3       0 jane       
 6 Sense & Sensibility          3       0 austen     
 7 Sense & Sensibility          5       0 1811       
 8 Sense & Sensibility         10       1 chapter    
 9 Sense & Sensibility         10       1 1          
10 Sense & Sensibility         13       1 the        
# … with 725,045 more rows
…
2
3
4
5
6
7
8
9
10
11
12
13
14

# A tibble: 13,914 x 2
   word       n
   <chr>  <int>
 1 miss    1855
 2 time    1337
 3 fanny    862
 4 dear     822
 5 lady     817
 6 sir      806
 7 day      797
 8 emma     787
 9 sister   727
10 house    699
# … with 13,904 more rows
…
